{
  "$schema": "http://json-schema.org/draft-04/schema#",
  "title": "Dog",
  "description": "",
  "type": "object",
  "properties": {
    "dog_id": {
      "title": "Dog Id",
      "type": "integer"
    },
    "dog_name": {
      "title": "dog name",
      "type": "string"
    },
    "dog_photo": {
      "title": "Dog Photo",
      "type": "object",
      "properties": {
        "dog_photo_id": {
          "title": "Dog Photo Id",
          "type": "integer"
        },
        "dog_photo_name": {
          "title": "Dog Photo Name",
          "type": "string"
        }
      }
    }
  }
}